v 20140308 2
T 53075 40925 15 14 1 0 0 0 1
Series One 2014 Breakout Boards
C 44900 42025 1 270 0 con_1x2.sym
{
T 44900 42025 5 10 0 1 90 8 1
refdes=CONN1
T 45225 41725 5 14 1 1 0 6 1
value=VOUT
T 46400 42075 5 8 1 1 0 6 1
footprint=molex_microfit_436500215
T 44900 42025 5 8 0 0 90 8 1
symversion=2.0
}
C 54500 42275 1 0 0 con_1x4.sym
{
T 54500 42275 5 10 0 1 0 0 1
refdes=CONN2
T 54450 42300 5 8 1 1 0 0 1
footprint=molex_705530038
T 54500 42275 5 8 0 0 0 0 1
symversion=1.0
T 55575 42700 5 14 1 1 180 0 1
value=Extruder0
}
N 48900 49550 48900 49800 4
{
T 48900 49375 5 10 1 1 90 0 1
netname=fan0
}
N 46100 41275 46100 41525 4
{
T 46100 40950 5 10 1 1 90 2 1
netname=Vdc_rtn
}
N 45700 41275 45700 41525 4
{
T 45725 41075 5 10 1 1 90 2 1
netname=Vdc
}
N 55300 43075 55000 43075 4
{
T 55800 43075 5 10 1 1 0 6 1
netname=E0M_1B
}
N 55300 43475 55000 43475 4
{
T 55800 43475 5 10 1 1 0 6 1
netname=E0M_1A
}
N 55300 43875 55000 43875 4
{
T 55800 43875 5 10 1 1 0 6 1
netname=E0M_2A
}
N 55300 44275 55000 44275 4
{
T 55800 44275 5 10 1 1 0 6 1
netname=E0M_2B
}
C 54500 48225 1 0 0 con_1x4.sym
{
T 54500 48225 5 10 0 1 0 0 1
refdes=CONN3
T 54475 48275 5 8 1 1 0 0 1
footprint=molex_705530038
T 54500 48225 5 8 0 0 0 0 1
symversion=1.0
T 54475 48475 5 14 1 1 0 0 1
value=Extruder1
}
N 46325 49500 46325 49800 4
{
T 46300 49350 5 10 1 1 90 0 1
netname=fan1_1
}
N 46725 49425 46725 49800 4
{
T 46725 49350 5 10 1 1 90 0 1
netname=fan1
}
N 55300 49025 55000 49025 4
{
T 55775 49025 5 10 1 1 0 6 1
netname=E1M_1B
}
N 55300 49425 55000 49425 4
{
T 55775 49425 5 10 1 1 0 6 1
netname=E1M_1A
}
N 55300 49825 55000 49825 4
{
T 55775 49825 5 10 1 1 0 6 1
netname=E1M_2A
}
N 55300 50225 55000 50225 4
{
T 55775 50225 5 10 1 1 0 6 1
netname=E1M_2B
}
C 54500 45350 1 0 0 con_1x4.sym
{
T 54500 48350 5 8 0 0 0 0 1
symversion=1.0
T 54525 45350 5 10 0 1 0 0 1
refdes=CONN4
T 54475 45350 5 8 1 1 0 0 1
footprint=molex_705530038
T 55075 45725 5 14 1 1 180 0 1
value=Aux1
}
N 55400 47350 55000 47350 4
{
T 55500 47350 5 10 1 1 0 6 1
netname=gnd
}
N 55400 46950 55000 46950 4
{
T 55500 46950 5 10 1 1 0 6 1
netname=aux0-b
}
N 55400 46550 55000 46550 4
{
T 55500 46550 5 10 1 1 0 6 1
netname=aux0-a
}
N 55000 46150 55400 46150 4
{
T 55500 46150 5 10 1 1 0 6 1
netname=5v_vcc
}
N 44275 45700 44550 45700 4
{
T 43950 45700 5 10 1 1 0 0 1
netname=Vdc
}
N 44275 45450 44550 45450 4
{
T 43950 45475 5 10 1 1 0 0 1
netname=Vdc_rtn
}
N 44275 45200 44550 45200 4
{
T 44000 45200 5 10 1 1 0 0 1
netname=Vin
}
N 46750 45700 47225 45700 4
{
T 47000 45725 5 10 1 1 0 0 1
netname=HE1
}
N 46750 45450 47225 45450 4
{
T 47000 45475 5 10 1 1 0 0 1
netname=Vin
}
N 46750 45200 47225 45200 4
{
T 47000 45225 5 10 1 1 0 0 1
netname=HE0
}
N 48650 46375 49025 46375 4
{
T 47800 46375 5 10 1 1 0 0 1
netname=E1M_2B
}
N 48650 46125 49025 46125 4
{
T 47800 46125 5 10 1 1 0 0 1
netname=E0M_1B
}
N 48650 45875 49025 45875 4
{
T 47800 45900 5 10 1 1 0 0 1
netname=E1M_1A
}
N 48650 45625 49025 45625 4
{
T 47800 45650 5 10 1 1 0 0 1
netname=E0M_2A
}
N 48650 45375 49025 45375 4
{
T 48375 45375 5 10 1 1 0 0 1
netname=gnd
}
N 48650 45125 49025 45125 4
{
T 47775 45150 5 10 1 1 0 0 1
netname=E0M_2B
}
N 48650 44875 49025 44875 4
{
T 47800 44900 5 10 1 1 0 0 1
netname=E1M_2A
}
N 48650 44625 49025 44625 4
{
T 47800 44650 5 10 1 1 0 0 1
netname=E0M_1A
}
N 48650 44375 49025 44375 4
{
T 47800 44400 5 10 1 1 0 0 1
netname=E1M_1B
}
N 48650 44125 49025 44125 4
{
T 48475 44125 5 10 1 1 0 0 1
netname=gnd
}
N 51525 46375 51900 46375 4
{
T 51675 46375 5 10 1 1 0 0 1
netname=5v_vcc
}
N 51525 45875 51900 45875 4
{
T 51825 45825 5 10 1 1 0 0 1
netname=aux0-b
}
N 51525 45625 51900 45625 4
{
T 51775 45625 5 10 1 1 0 0 1
netname=fan1_1
}
N 51525 45375 51900 45375 4
{
T 51800 45375 5 10 1 1 0 0 1
netname=gnd
}
N 51525 45125 51900 45125 4
{
T 51800 45175 5 10 1 1 0 0 1
netname=therm0
}
N 51525 44875 51900 44875 4
{
T 51825 44925 5 10 1 1 0 0 1
netname=therm1
}
N 51525 44625 51900 44625 4
{
T 51850 44625 5 10 1 1 0 0 1
netname=aux0-a
}
N 51525 44375 51900 44375 4
{
T 51825 44350 5 10 1 1 0 0 1
netname=fan0_1
}
N 51525 44125 51900 44125 4
{
T 51850 44100 5 10 1 1 0 0 1
netname=fan0
}
N 48500 49500 48500 49800 4
{
T 48475 49350 5 10 1 1 90 0 1
netname=fan0_1
}
N 51925 46125 51525 46125 4
{
T 51875 46125 5 10 1 1 0 0 1
netname=fan1
}
C 47525 50300 1 90 1 con_1x2.sym
{
T 47125 50300 5 10 0 1 90 6 1
refdes=CONN5
T 46100 50675 5 14 1 1 180 6 1
value=FAN1
T 47400 50325 5 8 1 1 0 6 1
footprint=jst-xh-2.50mm-2pos
T 45325 50300 5 8 0 0 90 6 1
symversion=2.0
}
C 49700 50300 1 90 1 con_1x2.sym
{
T 49300 50300 5 10 0 1 90 6 1
refdes=CONN6
T 48273 50676 5 14 1 1 180 6 1
value=FAN0
T 48300 50450 5 8 1 1 180 6 1
footprint=jst-xh-2.50mm-2pos
T 47500 50300 5 8 0 0 90 6 1
symversion=2.0
}
C 42225 46775 1 0 1 con_1x4.sym
{
T 42225 47175 5 10 0 1 0 6 1
refdes=CONN7
T 43025 46875 5 8 1 1 0 6 1
footprint=molex_microfit_436500415
T 42900 47075 5 14 1 1 0 6 1
value=Heat0, Therm0
T 42225 49775 5 8 0 0 0 6 1
symversion=1.0
}
C 42225 42700 1 0 1 con_1x4.sym
{
T 42225 43100 5 10 0 1 0 6 1
refdes=CONN8
T 43050 42725 5 8 1 1 0 6 1
footprint=molex_microfit_436500415
T 41275 43125 5 14 1 1 180 6 1
value=Heat1, Therm1
T 42225 45700 5 8 0 0 0 6 1
symversion=1.0
}
N 41325 48775 41725 48775 4
{
T 41325 48775 5 10 1 1 0 0 1
netname=gnd
}
N 41325 48375 41725 48375 4
{
T 41225 48375 5 10 1 1 0 0 1
netname=therm0
}
N 41325 47975 41725 47975 4
{
T 41375 47975 5 10 1 1 0 0 1
netname=Vin
}
N 41325 47575 41725 47575 4
{
T 41325 47575 5 10 1 1 0 0 1
netname=HE0
}
N 41325 44700 41725 44700 4
{
T 41350 44700 5 10 1 1 0 0 1
netname=gnd
}
N 41325 44300 41725 44300 4
{
T 41250 44300 5 10 1 1 0 0 1
netname=therm1
}
N 41325 43900 41725 43900 4
{
T 41350 43900 5 10 1 1 0 0 1
netname=Vin
}
N 41325 43500 41725 43500 4
{
T 41375 43500 5 10 1 1 0 0 1
netname=HE1
}
T 50500 39900 15 10 1 0 0 0 1
1
T 51900 39900 15 10 1 0 0 0 1
1
C 44450 44850 1 0 0 TAM_pwrline_6pin.sym
{
T 46450 46050 5 10 0 1 0 6 1
refdes=CONN9
T 44850 46250 5 10 0 0 0 0 1
device=TAM_pwrline_6pin
T 44850 44225 5 8 1 1 0 0 1
footprint=molex_microfit_436500615
T 44850 44450 5 14 1 1 0 0 1
value=Extruder and Aux pwr
}
C 48925 43775 1 0 0 TAM_20pin_ribbon_conn.sym
{
T 49925 46950 5 10 0 0 0 6 1
refdes=CONN10
T 49325 46925 5 10 0 0 0 0 1
device=TAM_20pin_ribbon_conn
T 49225 43275 5 8 1 1 0 0 1
footprint=EHF-110-01-XX-D
T 49225 43475 5 14 1 1 0 0 1
value=Motors and Signals
}
T 55300 40425 15 8 1 0 0 0 3
connecting data signals
and switching power from
RAMPS/RUMBA/RAMBO
B 43575 42975 9050 4550 3 0 0 0 -1 -1 0 -1 -1 -1 -1 -1
T 46125 47600 9 24 1 0 0 0 1
IN FROM GANTRY
B 54275 41825 2600 8925 3 0 0 0 -1 -1 0 -1 -1 -1 -1 -1
T 54250 42150 9 24 1 0 90 0 1
CONNECTED ON PCB REAR
T 46513 48671 9 8 1 0 90 0 1
{*NP}
T 46374 49275 9 21 1 0 270 0 1
}
T 41250 48075 9 10 1 0 180 0 1
Orange
T 41150 48525 9 10 1 0 180 0 1
Purple
T 55825 50225 9 10 1 0 0 0 1
Black
T 55825 49225 9 10 1 0 0 0 2
Red

T 55825 49025 9 10 1 0 0 0 1
Blue
T 55825 49825 9 10 1 0 0 0 1
Green
T 41250 47700 9 10 1 0 180 0 1
Orange
T 41150 48925 9 10 1 0 180 0 1
Purple
T 41325 43975 9 10 1 0 180 0 1
Orange
T 41225 44425 9 10 1 0 180 0 1
Purple
T 41325 43600 9 10 1 0 180 0 1
Orange
T 41225 44825 9 10 1 0 180 0 1
Purple
T 55825 44250 9 10 1 0 0 0 1
Black
T 55825 43250 9 10 1 0 0 0 2
Red

T 55825 43050 9 10 1 0 0 0 1
Blue
T 55825 43850 9 10 1 0 0 0 1
Green
T 56850 50145 9 8 1 0 180 0 1
{*NP}
T 56357 49970 9 21 1 0 0 0 1
}
T 45988 40321 9 8 1 0 90 0 1
{*NP}
T 45849 40900 9 21 1 0 270 0 1
}
B 50125 48000 3775 2800 3 0 0 0 -1 -1 0 -1 -1 -1 -1 -1
T 50200 50475 9 18 1 0 0 0 1
NOTES
T 50175 49375 9 10 1 0 0 0 4
Wiring colors are suggested and deployed by
Type A Machines, always check pin number
and signal for correct connections when
deploying alterations or upgrades
T 50225 48150 9 10 1 0 0 0 4
{*NP} = Not Populated
These connections are not populated 
on the stock single extruder model
Series One 2014
T 56357 49170 9 21 1 0 0 0 1
}
T 56850 49345 9 8 1 0 180 0 1
{*NP}
T 55607 47070 9 21 1 0 0 0 1
}
T 56100 47245 9 8 1 0 180 0 1
{*NP}
T 55582 46295 9 21 1 0 0 0 1
}
T 56075 46470 9 8 1 0 180 0 1
{*NP}
T 40172 44637 9 8 1 0 180 6 1
{*NP}
T 40668 44470 9 21 1 0 0 6 1
{
T 40668 43620 9 21 1 0 0 6 1
{
T 40173 43787 9 8 1 0 180 6 1
{*NP}
L 50125 50375 53900 50375 3 0 0 0 -1 -1
C 49400 39800 1 0 0 cvstitleblock-1.sym
{
T 50000 40200 5 10 1 1 0 0 1
date=$Date$
T 53900 40200 5 10 1 1 0 0 1
rev=$Revision$
T 54000 39900 5 10 1 1 0 0 1
auth=$Author$
T 50200 40500 5 10 1 1 0 0 1
fname=$Source$
T 51400 41000 5 14 1 1 0 4 1
title=Carriage breakout board
}
