HE1	CONN9-4 CONN8-4 
therm1	CONN10-17 CONN8-2 
HE0	CONN9-6 CONN7-4 
Vin	CONN9-5 CONN9-3 CONN8-3 CONN7-3 
therm0	CONN10-16 CONN7-2 
fan0	CONN10-20 CONN6-2 
fan0_1	CONN10-19 CONN6-1 
fan1	CONN10-12 CONN5-2 
fan1_1	CONN10-14 CONN5-1 
5v_vcc	CONN10-11 CONN4-4 
aux0-a	CONN10-18 CONN4-3 
aux0-b	CONN10-13 CONN4-2 
gnd	CONN10-15 CONN10-10 CONN10-5 CONN8-1 CONN7-1 CONN4-1 
E1M_1B	CONN10-9 CONN3-4 
E1M_1A	CONN10-3 CONN3-3 
E1M_2A	CONN10-7 CONN3-2 
E1M_2B	CONN10-1 CONN3-1 
E0M_1B	CONN10-2 CONN2-4 
E0M_1A	CONN10-8 CONN2-3 
E0M_2A	CONN10-4 CONN2-2 
E0M_2B	CONN10-6 CONN2-1 
Vdc	CONN9-1 CONN1-2 
Vdc_rtn	CONN9-2 CONN1-1 
